<?xml version="1.0" encoding="UTF-8"?>
<svg width="20px" height="20px" viewBox="0 0 20 20" version="1.1" xmlns="http://www.w3.org/2000/svg" xmlns:xlink="http://www.w3.org/1999/xlink">
    <title>ico_monitor_20px</title>
    <g id="ico_monitor_20px" stroke="none" stroke-width="1" fill="none" fill-rule="evenodd">
        <path d="M1.18674699,3.11008612 C1.18693775,2.87808612 1.37522088,2.6891866 1.6064257,2.68899522 L18.3935361,2.68899522 C18.6247791,2.6891866 18.8130241,2.87808612 18.813253,3.11004785 L18.813253,13.0239234 L1.18674699,13.0239234 L1.18674699,3.11008612 Z M1.18674699,13.7129187 L18.813253,13.7129187 L18.813253,14.4401531 C18.8130241,14.6721531 18.6247791,14.8610144 18.3935743,14.861244 L1.60646386,14.861244 C1.37522088,14.8610144 1.18693775,14.6721531 1.18674699,14.4401914 L1.18674699,13.7129187 Z M8.28233133,16.3923445 L8.45024096,15.5502392 L11.5497972,15.5502392 L11.7176687,16.3923445 L8.28233133,16.3923445 Z M6.68072289,17.3110048 L13.3192771,17.3110048 L13.3192771,17.0813397 L6.68072289,17.0813397 L6.68072289,17.3110048 Z M18.3936124,2 L1.60638755,2 C0.996975904,2.000689 0.500686747,2.49860287 0.5,3.11004785 L0.5,14.4402297 C0.500686747,15.0515981 0.996975904,15.549512 1.6064257,15.5502392 L7.74979719,15.5502392 L7.58188755,16.3923445 L6.3373494,16.3923445 C6.14803614,16.3923445 5.9939759,16.5468708 5.9939759,16.7368421 L5.9939759,17.6555024 C5.9939759,17.8454737 6.14803614,18 6.3373494,18 L13.6626506,18 C13.852002,18 14.0060241,17.8454737 14.0060241,17.6555024 L14.0060241,16.7368421 C14.0060241,16.5468708 13.852002,16.3923445 13.6626506,16.3923445 L12.4180743,16.3923445 L12.2502028,15.5502392 L18.3936124,15.5502392 C19.0029859,15.549512 19.4992751,15.0515981 19.5,14.4401914 L19.5,3.11000957 C19.4992751,2.49860287 19.0029859,2.000689 18.3936124,2 L18.3936124,2 Z" id="Fill-1" fill="#444444"></path>
    </g>
</svg>