<?xml version="1.0" encoding="UTF-8"?>
<svg width="20px" height="20px" viewBox="0 0 20 20" version="1.1" xmlns="http://www.w3.org/2000/svg" xmlns:xlink="http://www.w3.org/1999/xlink">
    <title>ico_scene_active_20px</title>
    <g id="ico_scene_active_20px" stroke="none" stroke-width="1" fill="none" fill-rule="evenodd">
        <path d="M6.8055406,9.09767386 L6.91469837,9.09767386 L6.83751017,9.17560775 L6.52875737,9.48738899 L5.24088561,10.7877026 L5.18788937,10.8411652 L5.17464032,10.8545422 L5.1559198,10.8545422 L5.08099254,10.8545422 L4.05982024,10.8545422 L3.87894573,10.8545422 L3.8337271,10.8545422 L3.8337271,10.8088867 L3.8337271,10.6262648 L3.8337271,9.32595123 L3.8337271,9.14332933 L3.8337271,9.09767386 L3.87894573,9.09767386 L4.05982024,9.09767386 L6.3688643,9.09767386 L6.8055406,9.09767386 Z M8.0830573,9.11105091 L8.09630636,9.09767386 L8.11502687,9.09767386 L8.18995414,9.09767386 L10.2323892,9.09767386 L10.6690655,9.09767386 L10.7782685,9.09767386 L10.701035,9.17560775 L10.3922822,9.48738899 L9.10441047,10.7877026 L9.05141424,10.8411652 L9.0382104,10.8545422 L9.01944467,10.8545422 L8.9445174,10.8545422 L6.90208237,10.8545422 L6.46540607,10.8545422 L6.3562483,10.8545422 L6.4334365,10.7766083 L6.7421893,10.4648271 L8.03006107,9.16451347 L8.0830573,9.11105091 Z M11.9465822,9.11105091 L11.9598312,9.09767386 L11.9785517,9.09767386 L12.053479,9.09767386 L14.0959592,9.09767386 L14.5326355,9.09767386 L14.6417933,9.09767386 L14.5646051,9.17560775 L14.2558071,9.48738899 L12.9679353,10.7877026 L12.9149843,10.8411652 L12.9017353,10.8545422 L12.8830147,10.8545422 L12.8080875,10.8545422 L10.7656072,10.8545422 L10.3289309,10.8545422 L10.2197732,10.8545422 L10.2969614,10.7766083 L10.6057594,10.4648271 L11.8935859,9.16451347 L11.9465822,9.11105091 Z M15.810107,9.11105091 L15.8233561,9.09767386 L15.8421218,9.09767386 L15.9170039,9.09767386 L16.9382214,9.09767386 L17.1190055,9.09767386 L17.1641789,9.09767386 L17.1642241,9.14332933 L17.1643145,9.32581427 L17.1649928,10.6261279 L17.1650832,10.8088411 L17.1651285,10.8545422 L17.1198646,10.8545422 L16.9388997,10.8545422 L14.6291321,10.8545422 L14.1924558,10.8545422 L14.083298,10.8545422 L14.1604862,10.7766083 L14.4692842,10.4648271 L15.757156,9.16451347 L15.810107,9.11105091 Z M4.47759515,18.6562868 L16.5204012,18.6562868 L16.5204012,11.698301 L4.47759515,11.698301 L4.47759515,18.6562868 Z M3.64932553,8.12763197 L3.63254942,8.08521803 L3.56553541,7.9156536 L3.08825278,6.70774668 L3.02123877,6.53809094 L3.00446266,6.495677 L3.04647077,6.47873882 L3.21454841,6.41112306 L5.35949407,5.54764105 L5.76501473,5.38442273 L5.8663949,5.34360673 L5.82330155,5.44482492 L5.65092813,5.84983464 L4.93181628,7.53931551 L4.90219808,7.6088488 L4.89482744,7.62619788 L4.87741827,7.63322883 L4.8078268,7.66121563 L3.85927562,8.04307803 L3.69128842,8.11073944 L3.64932553,8.12763197 Z M6.03605519,7.08289772 L6.20847383,6.67784235 L6.92749524,4.98845279 L6.95711344,4.9189195 L6.96448408,4.90157042 L6.98189325,4.89453948 L7.05148472,4.86655267 L8.94808967,4.10305615 L9.35365555,3.93979217 L9.45503572,3.89897618 L9.41194236,4.00024002 L9.23956895,4.40520409 L8.52059275,6.09445668 L8.49101977,6.16398997 L8.48360391,6.18133905 L8.46619474,6.18836999 L8.39660327,6.21640246 L6.49990789,6.98003594 L6.09434201,7.14329992 L5.99296184,7.18411591 L6.03605519,7.08289772 Z M9.62474123,5.63803889 L9.79711464,5.23302917 L10.5160004,3.54382224 L10.5455734,3.4743346 L10.5529892,3.45693987 L10.5703984,3.44995458 L10.6399899,3.42192212 L12.5367305,2.65833429 L12.9422964,2.49511597 L13.0436765,2.45429997 L13.0005832,2.55551816 L12.8282098,2.96052788 L12.109324,4.64964351 L12.0797058,4.71913114 L12.0723352,4.73652588 L12.054926,4.74351116 L11.9853345,4.77154363 L10.0885487,5.53517711 L9.68302804,5.69844109 L9.58164788,5.73925708 L9.62474123,5.63803889 Z M13.2134725,4.19308875 L13.3858911,3.78807903 L14.1048221,2.09919168 L14.1343951,2.02970405 L14.1417657,2.01235497 L14.1591749,2.00532402 L14.2287664,1.97729156 L15.1773628,1.59538351 L15.3454404,1.5277221 L15.3874485,1.51078391 L15.4041794,1.55324351 L15.4711482,1.72289925 L15.947843,2.93048658 L16.0147665,3.10009667 L16.0315427,3.14251061 L15.9895345,3.15940313 L15.8215473,3.22706455 L13.6773704,4.09027262 L13.2718045,4.2535366 L13.1703791,4.2943526 L13.2134725,4.19308875 Z M5.59132998,8.25391501 L16.8670925,3.71439109 C16.9994926,3.66111115 17.0633865,3.50903276 17.0093955,3.37585574 L15.9081862,0.660815929 C15.8548283,0.529282504 15.7063755,0.465775738 15.5756937,0.518599123 L2.16118046,5.94004986 C2.02982034,5.99314718 1.96592642,6.14358197 2.01828959,6.27621113 L2.98194379,8.71599408 L2.9948311,8.74859209 L2.99804162,8.75671877 L2.99804162,8.76548462 L2.99804162,8.80054802 L2.99804162,11.2585475 C2.99804162,11.4014948 3.1128065,11.5173684 3.25438602,11.5173684 L3.64190967,11.5173227 L3.64190967,19.2411335 C3.64190967,19.3840807 3.75671977,19.5 3.8982993,19.5 L17.0997423,19.5 C17.2413218,19.5 17.3560867,19.3840807 17.3560867,19.2411335 L17.3560867,11.5173227 L17.7436104,11.5173684 C17.8851899,11.5173684 18,11.4014948 18,11.2585475 L18,8.51269025 C18,8.36974296 17.8852351,8.25386936 17.7436556,8.25386936 L5.59132998,8.25391501 Z" id="Fill-1" fill="#305DA8"></path>
    </g>
</svg>