<?xml version="1.0" encoding="UTF-8"?>
<svg width="20px" height="20px" viewBox="0 0 20 20" version="1.1" xmlns="http://www.w3.org/2000/svg" xmlns:xlink="http://www.w3.org/1999/xlink">
    <title>ico_distribution_active_20px</title>
    <g id="ico_distribution_active_20px" stroke="none" stroke-width="1" fill="none" fill-rule="evenodd">
        <path d="M9.99997162,-1.42108547e-14 C10.8757207,-1.42108547e-14 11.6025153,0.657026133 11.6905338,1.52837859 C11.7775017,2.38910811 11.2118797,3.16964037 10.3709568,3.3573121 L10.3709568,3.3573121 L10.3709568,5.66439409 C11.2725822,5.74023323 12.1118708,6.08818275 12.802711,6.67240486 L12.802711,6.67240486 L14.4348277,5.04024844 C13.9727111,4.31310321 14.1243893,3.36120328 14.7942949,2.81383066 C15.4724109,2.2597263 16.450965,2.30867738 17.0704409,2.92772557 C17.6899168,3.54673485 17.7395682,4.52521155 17.1858922,5.20379484 C16.6390646,5.87401208 15.6872819,6.02642969 14.9597479,5.56477982 L14.9597479,5.56477982 L13.3275534,7.19728645 C13.9118531,7.88808804 14.2597246,8.72741606 14.3355637,9.62904192 L14.3355637,9.62904192 L16.6426834,9.62904192 C16.8163468,8.85854891 17.5087045,8.30183746 18.3011823,8.30082575 C19.1919902,8.30102031 19.9365287,8.9974252 19.9961805,9.88628798 C20.0557934,10.7750729 19.4109469,11.5646716 18.5281549,11.6838975 C17.6560635,11.801489 16.8340906,11.2266057 16.6426445,10.3709736 L16.6426445,10.3709736 L14.3355637,10.3709736 C14.2597246,11.2725606 13.9118531,12.1118886 13.3275534,12.8027291 L13.3275534,12.8027291 L14.9597479,14.4351968 C15.687243,13.9736248 16.6391035,14.1259257 17.1858922,14.7962207 C17.7395293,15.474804 17.6899168,16.4532807 17.0704409,17.0722511 C16.4510039,17.6912993 15.4725277,17.7402504 14.7942949,17.186146 C14.1244282,16.6388123 13.9727111,15.6869124 14.4348277,14.9596893 L14.4348277,14.9596893 L12.802711,13.3275718 C12.1118319,13.9118717 11.2725432,14.2597434 10.3709568,14.3355826 L10.3709568,14.3355826 L10.3709568,16.6426646 C11.2118797,16.8303752 11.7775017,17.6109075 11.6905338,18.471637 C11.6025153,19.3429505 10.8757207,20.0000156 9.99997162,20.0000156 C9.12426148,20.0000156 8.39746682,19.3429505 8.30944832,18.471637 C8.22248044,17.6109075 8.78810241,16.8303752 9.6290254,16.6426646 L9.6290254,16.6426646 L9.6290254,14.3355826 C8.72743891,14.2597434 7.88815022,13.9118717 7.19731006,13.3275718 L7.19731006,13.3275718 L5.56511555,14.9597282 C6.02672628,15.6872626 5.87438657,16.6390847 5.20409184,17.1859125 C4.52558672,17.7396278 3.54711051,17.6899374 2.92806263,17.0704222 C2.30905366,16.4510238 2.2600637,15.4724693 2.81416778,14.7942751 C3.36154012,14.124447 4.31347848,13.9727298 5.04058444,14.4348466 L5.04058444,14.4348466 L6.67274004,12.8027291 C6.08851822,12.1118886 5.74056887,11.2725606 5.66469086,10.3709736 L5.66469086,10.3709736 L3.35733764,10.3709736 C3.18239018,11.1546967 2.49240608,11.6992676 1.7026132,11.6993455 C1.64498482,11.6993455 1.58692841,11.696466 1.52836614,11.6905514 C0.65705304,11.6025328 -1.16735411e-05,10.8757378 -1.16735411e-05,9.99998833 C-1.16735411e-05,9.12423884 0.65705304,8.3974438 1.52836614,8.30946417 C2.38893959,8.22269081 3.1696271,8.78811851 3.35733764,9.62904192 L3.35733764,9.62904192 L5.66441847,9.62904192 C5.74029649,8.7275328 6.08824584,7.88836042 6.67238983,7.19759774 L6.67238983,7.19759774 L5.04027315,5.56513003 C4.31270024,6.02674098 3.36087862,5.87436228 2.81405104,5.20410613 C2.26045282,4.52556176 2.31010428,3.54704615 2.92954128,2.92803686 C3.54897828,2.30906649 4.5274934,2.26007651 5.20568722,2.81414196 C5.87559283,3.36151457 6.02727104,4.3134145 5.56511555,5.04059865 L5.56511555,5.04059865 L7.19731006,6.67275507 C7.88815022,6.08845513 8.72743891,5.74058344 9.6290254,5.66470538 L9.6290254,5.66470538 L9.6290254,3.3573121 C8.78810241,3.16964037 8.22248044,2.38910811 8.30944832,1.52837859 C8.39746682,0.657026133 9.12426148,-1.42108547e-14 9.99997162,-1.42108547e-14 Z M9.99997162,17.3439723 C9.47217192,17.3439723 9.04274125,17.7733643 9.04274125,18.3011643 C9.04274125,18.8290032 9.47217192,19.258434 9.99997162,19.258434 C10.5278102,19.258434 10.957202,18.8290032 10.957202,18.3011643 C10.957202,17.7733643 10.5278102,17.3439723 9.99997162,17.3439723 Z M4.12927,14.9133842 C3.69734898,14.9133842 3.31725849,15.2049505 3.20527032,15.6226689 C3.09320432,16.0406208 3.27667348,16.4834763 3.65143306,16.6996704 C4.02615372,16.9158645 4.50126684,16.8531775 4.80699688,16.5471749 C5.07482683,16.2710956 5.15276717,15.8631829 5.00556382,15.5078401 C4.85828264,15.1523806 4.51453577,14.9189875 4.12927,14.9133842 Z M15.8688833,14.9126449 C15.786507,14.9126449 15.7037027,14.9232678 15.6223381,14.9450585 C15.2930275,15.0333105 15.0336414,15.2926967 14.9453895,15.6220074 C14.8571764,15.9513182 14.9520823,16.3056103 15.1931409,16.546708 C15.5724532,16.9088214 16.167687,16.9088214 16.5476608,16.5460465 C16.7278614,16.3658848 16.8274367,16.1254486 16.8274367,15.869759 C16.8274367,15.6141083 16.7278614,15.3736722 16.5469993,15.1928489 C16.3655146,15.0113642 16.1197477,14.9126449 15.8688833,14.9126449 Z M9.99997162,6.38640296 C8.0074149,6.38640296 6.38638808,8.0074306 6.38638808,9.99998833 C6.38638808,11.9924293 8.00757055,13.613418 9.99997162,13.6136126 C11.9901936,13.6112779 13.6112594,11.9902113 13.6135941,9.99994941 C13.6135941,8.0074306 11.9925673,6.38640296 9.99997162,6.38640296 Z M8.65810064,8.10233998 C8.87931549,7.97709102 9.16076686,7.96605655 9.3927859,8.07337448 L9.3927859,8.07337448 L11.6307848,9.3801743 C11.880491,9.50262632 12.0332515,9.74013573 12.0294554,10.0001739 C12.0256176,10.2603652 11.8657239,10.4941965 11.6121381,10.6102884 C11.0150199,10.9443362 10.6086723,11.1645301 10.2588219,11.3783665 C9.44547509,11.8755023 9.27139514,12 9.0665743,12 L9.0665743,12 L9.04796939,12 C8.63536594,11.9969732 8.30000041,11.6863987 8.30000041,11.30774 L8.30000041,11.30774 L8.30000041,8.69218629 C8.29972674,8.45360409 8.43696922,8.22755061 8.65810064,8.10233998 Z M9.09535767,8.75866134 L9.09535767,11.2416864 L11.1738382,9.99745355 L9.09535767,8.75866134 Z M1.69879984,9.04275748 C1.17100014,9.04275748 0.741569478,9.47218836 0.741569478,9.99998833 C0.741569478,10.5278272 1.17100014,10.9572192 1.69879984,10.9572192 C2.22659955,10.9572192 2.65603021,10.5278272 2.65603021,9.99998833 C2.65603021,9.47218836 2.22659955,9.04275748 1.69879984,9.04275748 Z M18.3011823,9.04275748 C17.7733437,9.04275748 17.3439519,9.47218836 17.3439519,9.99998833 C17.3439519,10.5278272 17.7733437,10.9572192 18.3011823,10.9572192 C18.828982,10.9572192 19.2584127,10.5278272 19.2584127,9.99998833 C19.2584127,9.47218836 18.828982,9.04275748 18.3011823,9.04275748 Z M4.12989259,3.17357047 C3.88474823,3.17357047 3.63968169,3.26684211 3.45306068,3.45346321 C3.07985757,3.82662759 3.07981866,4.43392442 3.45298286,4.80716662 C3.6337671,4.98798987 3.87416422,5.08756522 4.12989259,5.08756522 C4.38558205,5.08756522 4.62601809,4.98798987 4.80684124,4.80716662 C5.17996652,4.43392442 5.17992761,3.82662759 4.80676341,3.45346321 C4.62018132,3.26688102 4.37499804,3.17357047 4.12989259,3.17357047 Z M16.5465324,3.45303518 C16.1732903,3.07983189 15.5660327,3.07983189 15.1928296,3.45295736 C15.0120065,3.63374169 14.9124312,3.87417784 14.9124312,4.12986743 C14.9124312,4.38563484 15.0120065,4.62603209 15.1928296,4.80681642 C15.5659938,5.17994189 16.1732903,5.1799808 16.5465324,4.80673859 C16.9197355,4.4335353 16.9197355,3.82627739 16.5465324,3.45303518 Z M9.99997162,0.741581524 C9.47217192,0.741581524 9.04274125,1.17097349 9.04274125,1.69881237 C9.04274125,2.22661234 9.47217192,2.65604322 9.99997162,2.65604322 C10.5278102,2.65604322 10.957202,2.22661234 10.957202,1.69881237 C10.957202,1.17097349 10.5278102,0.741581524 9.99997162,0.741581524 Z" id="Combined-Shape" fill="#305DA8"></path>
    </g>
</svg>