<?xml version="1.0" encoding="UTF-8"?>
<svg width="24px" height="24px" viewBox="0 0 24 24" version="1.1" xmlns="http://www.w3.org/2000/svg" xmlns:xlink="http://www.w3.org/1999/xlink">
    <title>ico_arrow_prev2_active_24px</title>
    <g id="ico_arrow_prev2_active_24px" stroke="none" stroke-width="1" fill="none" fill-rule="evenodd">
        <path d="M5.99582778,5.67085833 L11.8291611,11.5043472 C11.9385556,11.6137417 12,11.7621028 12,11.9168028 C12,12.0715028 11.9385167,12.2199028 11.8291222,12.3292583 L5.99578889,18.1624361 C5.76801667,18.3902861 5.39865,18.3902861 5.17083889,18.162475 C4.94306667,17.9347028 4.94302778,17.5653361 5.17087778,17.337525 L10.5917167,11.9168028 L5.17083889,6.49580833 C4.94306667,6.26803611 4.94302778,5.89866944 5.17087778,5.67085833 C5.39868889,5.44304722 5.76801667,5.44304722 5.99582778,5.67085833 Z M12.9958278,5.67085833 L18.8291611,11.5043472 C18.9385556,11.6137417 19,11.7621028 19,11.9168028 C19,12.0715028 18.9385167,12.2199028 18.8291222,12.3292583 L12.9957889,18.1624361 C12.7680167,18.3902861 12.39865,18.3902861 12.1708389,18.162475 C11.9430667,17.9347028 11.9430278,17.5653361 12.1708778,17.337525 L17.5917167,11.9168028 L12.1708389,6.49580833 C11.9430667,6.26803611 11.9430278,5.89866944 12.1708778,5.67085833 C12.3986889,5.44304722 12.7680167,5.44304722 12.9958278,5.67085833 Z" id="Combined-Shape" fill="#305DA8" transform="translate(12.000000, 11.916664) scale(-1, 1) translate(-12.000000, -11.916664) "></path>
    </g>
</svg>