<svg width="40" height="40" viewBox="0 0 40 40" xmlns="http://www.w3.org/2000/svg">
    <g fill="none" fill-rule="evenodd">
        <path d="M0 0h40v40H0z"/>
        <path d="m8.4 8.4 23.2 23.2m0-23.2L8.4 31.6" stroke="#FFF" stroke-width="2" stroke-linecap="square"/>
    </g>
</svg>
